{
      "ScenarioName": "EquilExtended",
      "InputPath": "./input",
      "PackageName": "MatsimModel",
      "Unit": "Metric",
      "ParserPackage": "MatsimParser",
      "ScenarioProcessor" : "MSScenarioProcessor",
      "MandatoryModules" : [
          {
              "InputFile": "matsimDefault/output_events.xml",
              "ModelName": "MSEvent",
              "Path": "event",
              "SuperModelName":  "Event",
              "ParserName": "MSMandatoryParser",
              "Types" : []
          }, { 
              "InputFile": "matsimDefault/network.xml",
              "ModelName": "MSLink" ,
              "Path": "link",
              "SuperModelName": "Link",
              "ParserName": "MSMandatoryParser",
              "Types" : ["modes", "type"]
          }, {
              "InputFile": "matsimDefault/network.xml",
              "ModelName": "MSNode" ,
              "Path": "node",
              "SuperModelName": "Node",
              "ParserName": "MSMandatoryParser",
              "Types" : ["type"]
          }, {
              "InputFile": "matsimDefault/output_vehicles.xml",
              "ModelName": "MSVehicle" ,
              "Path": "vehicle",
              "SuperModelName": "Vehicle",
              "ParserName": "MSMandatoryParser",
              "Types" : ["type"]
          }, {
              "InputFile": "matsimDefault/plans100.xml",
              "ModelName": "MSPerson" ,
              "Path": "person",
              "SuperModelName": "Person",
              "ParserName": "MSMandatoryParser",
              "Types" : ["sex", "license", "car_avail", "job"]
          }
      ],
      "OptionalModules" : [
          {
              "InputFile": "matsimDefault/facilities.xml",
              "ModelName" :  "MSFacility",
              "Path": "facility",
              "SuperModelName": "Facility",
              "ParserName": "MSOptionalParser",
              "Types" : ["access", "type", "opentime"]
          }
      ]
}
